EESchema Schematic File Version 4
EELAYER 30 0
EELAYER END
$Descr A3 16535 11693
encoding utf-8
Sheet 3 3
Title "Main power"
Date ""
Rev ""
Comp "Jacek Łysiak"
Comment1 ""
Comment2 ""
Comment3 ""
Comment4 ""
$EndDescr
$Comp
L Connector:Screw_Terminal_01x02 J?
U 1 1 6110B243
P 5700 1600
F 0 "J?" H 5618 1275 50  0000 C CNN
F 1 "Wing A" H 5618 1366 50  0000 C CNN
F 2 "" H 5700 1600 50  0001 C CNN
F 3 "~" H 5700 1600 50  0001 C CNN
	1    5700 1600
	-1   0    0    1   
$EndComp
$Comp
L Connector:Screw_Terminal_01x02 J?
U 1 1 6110DEDC
P 5700 2350
F 0 "J?" H 5618 2025 50  0000 C CNN
F 1 "Wing B" H 5618 2116 50  0000 C CNN
F 2 "" H 5700 2350 50  0001 C CNN
F 3 "~" H 5700 2350 50  0001 C CNN
	1    5700 2350
	-1   0    0    1   
$EndComp
Text Notes 4900 1975 0    50   ~ 0
SECONDARY WINGS:\n(TST 200/006)\n2 x 14V\n2 x 7.14A
Wire Notes Line
	4750 1150 6025 1150
Wire Notes Line
	6025 1150 6025 2500
Wire Notes Line
	6025 2500 4750 2500
Wire Notes Line
	4750 2500 4750 1150
Wire Wire Line
	5900 1600 6150 1600
Wire Wire Line
	6150 1600 6150 2250
Wire Wire Line
	6150 2250 5900 2250
$Comp
L Relay:RAYEX-L90S K?
U 1 1 61113BBF
P 8125 1800
F 0 "K?" V 8692 1800 50  0000 C CNN
F 1 "RAYEX-L90S" V 8601 1800 50  0000 C CNN
F 2 "Relay_THT:Relay_SPDT_RAYEX-L90S" H 8575 1750 50  0001 L CNN
F 3 "https://a3.sofastcdn.com/attachment/7jioKBjnRiiSrjrjknRiwS77gwbf3zmp/L90-SERIES.pdf" H 8775 1650 50  0001 L CNN
	1    8125 1800
	0    -1   -1   0   
$EndComp
$Comp
L Relay:RAYEX-L90S K?
U 1 1 611157D5
P 8125 3000
F 0 "K?" V 8692 3000 50  0000 C CNN
F 1 "RAYEX-L90S" V 8601 3000 50  0000 C CNN
F 2 "Relay_THT:Relay_SPDT_RAYEX-L90S" H 8575 2950 50  0001 L CNN
F 3 "https://a3.sofastcdn.com/attachment/7jioKBjnRiiSrjrjknRiwS77gwbf3zmp/L90-SERIES.pdf" H 8775 2850 50  0001 L CNN
	1    8125 3000
	0    -1   -1   0   
$EndComp
Wire Wire Line
	7400 1500 7400 2700
Connection ~ 7400 1500
Wire Wire Line
	7400 1500 7725 1500
Wire Wire Line
	7400 2700 7725 2700
Wire Wire Line
	7725 1700 7475 1700
Wire Wire Line
	7475 2900 7725 2900
Wire Wire Line
	7725 2000 7550 2000
Wire Wire Line
	7550 2000 7550 3200
Wire Wire Line
	7550 3200 7725 3200
Wire Wire Line
	8525 2000 8625 2000
Wire Wire Line
	8625 2000 8625 3200
Wire Wire Line
	8625 3200 8525 3200
Wire Wire Line
	7475 1700 7475 2250
Wire Wire Line
	6150 2250 6300 2250
Connection ~ 6150 2250
Connection ~ 7475 2250
Wire Wire Line
	7475 2250 7475 2900
Wire Notes Line
	7200 1150 9200 1150
Wire Notes Line
	9200 3875 7200 3875
Text Notes 8600 1275 0    50   ~ 0
Wing switching
Wire Wire Line
	7550 2000 7550 1375
Connection ~ 7550 2000
$Comp
L power:+12V #PWR?
U 1 1 6111D1E6
P 7550 1375
F 0 "#PWR?" H 7550 1225 50  0001 C CNN
F 1 "+12V" H 7565 1548 50  0000 C CNN
F 2 "" H 7550 1375 50  0001 C CNN
F 3 "" H 7550 1375 50  0001 C CNN
	1    7550 1375
	1    0    0    -1  
$EndComp
$Comp
L Device:D D?
U 1 1 6111D732
P 8125 3725
F 0 "D?" H 8125 3942 50  0000 C CNN
F 1 "1N4148" H 8125 3851 50  0000 C CNN
F 2 "" H 8125 3725 50  0001 C CNN
F 3 "~" H 8125 3725 50  0001 C CNN
	1    8125 3725
	1    0    0    -1  
$EndComp
Wire Wire Line
	7975 3725 7550 3725
Wire Wire Line
	7550 3725 7550 3200
Connection ~ 7550 3200
Wire Wire Line
	8625 3200 8625 3725
Wire Wire Line
	8625 3725 8275 3725
Connection ~ 8625 3200
Wire Wire Line
	8625 3725 8625 4250
Connection ~ 8625 3725
Wire Notes Line
	7200 1150 7200 3875
Wire Notes Line
	9200 1150 9200 3875
$Comp
L Transistor_FET:2N7000 Q?
U 1 1 61120B21
P 8525 4450
F 0 "Q?" H 8729 4496 50  0000 L CNN
F 1 "2N7000" H 8729 4405 50  0000 L CNN
F 2 "Package_TO_SOT_THT:TO-92_Inline" H 8725 4375 50  0001 L CIN
F 3 "https://www.onsemi.com/pub/Collateral/NDS7002A-D.PDF" H 8525 4450 50  0001 L CNN
	1    8525 4450
	1    0    0    -1  
$EndComp
$Comp
L power:GND #PWR?
U 1 1 61121423
P 8625 4750
F 0 "#PWR?" H 8625 4500 50  0001 C CNN
F 1 "GND" H 8630 4577 50  0000 C CNN
F 2 "" H 8625 4750 50  0001 C CNN
F 3 "" H 8625 4750 50  0001 C CNN
	1    8625 4750
	1    0    0    -1  
$EndComp
Wire Wire Line
	8625 4750 8625 4650
$Comp
L Device:R R?
U 1 1 61121E32
P 8050 4450
F 0 "R?" V 7843 4450 50  0000 C CNN
F 1 "1k/0.125W" V 7934 4450 50  0000 C CNN
F 2 "" V 7980 4450 50  0001 C CNN
F 3 "~" H 8050 4450 50  0001 C CNN
	1    8050 4450
	0    1    1    0   
$EndComp
Wire Wire Line
	8325 4450 8200 4450
Wire Wire Line
	7900 4450 7700 4450
Text GLabel 7700 4450 0    50   Input ~ 0
WING_SWITCH
$Comp
L Diode_Bridge:KBU8M D?
U 1 1 61124109
P 9700 2000
F 0 "D?" H 10044 2046 50  0000 L CNN
F 1 "KBU8M" H 10044 1955 50  0000 L CNN
F 2 "Diode_THT:Diode_Bridge_Vishay_KBU" H 9850 2125 50  0001 L CNN
F 3 "http://www.vishay.com/docs/88656/kbu8.pdf" H 9700 2000 50  0001 C CNN
	1    9700 2000
	1    0    0    -1  
$EndComp
Wire Wire Line
	8525 1600 8950 1600
Wire Wire Line
	9700 1600 9700 1700
Wire Wire Line
	8525 2800 8950 2800
Wire Wire Line
	8950 2800 8950 1600
Connection ~ 8950 1600
Wire Wire Line
	8950 1600 9700 1600
Wire Wire Line
	9700 2300 9700 4000
Wire Wire Line
	9700 4000 6150 4000
Wire Wire Line
	6150 4000 6150 2350
Wire Wire Line
	6150 2350 5900 2350
Wire Wire Line
	9400 2000 9400 2625
$Comp
L power:GND #PWR?
U 1 1 6112A55A
P 9400 2625
F 0 "#PWR?" H 9400 2375 50  0001 C CNN
F 1 "GND" H 9405 2452 50  0000 C CNN
F 2 "" H 9400 2625 50  0001 C CNN
F 3 "" H 9400 2625 50  0001 C CNN
	1    9400 2625
	1    0    0    -1  
$EndComp
Wire Notes Line
	9300 2375 10100 2375
Wire Notes Line
	10100 2375 10100 1150
Wire Notes Line
	10100 1150 9300 1150
Wire Notes Line
	9300 1150 9300 2375
Text Notes 9350 1275 0    50   ~ 0
Radiator
$Comp
L Device:CP1 C?
U 1 1 6112BEC6
P 10700 2300
F 0 "C?" H 10815 2346 50  0000 L CNN
F 1 "4700uF/63V" H 10815 2255 50  0000 L CNN
F 2 "" H 10700 2300 50  0001 C CNN
F 3 "~" H 10700 2300 50  0001 C CNN
	1    10700 2300
	1    0    0    -1  
$EndComp
Wire Wire Line
	10000 2000 10700 2000
Wire Wire Line
	10700 2150 10700 2000
Connection ~ 10700 2000
$Comp
L power:GND #PWR?
U 1 1 6112DE30
P 10700 2625
F 0 "#PWR?" H 10700 2375 50  0001 C CNN
F 1 "GND" H 10705 2452 50  0000 C CNN
F 2 "" H 10700 2625 50  0001 C CNN
F 3 "" H 10700 2625 50  0001 C CNN
	1    10700 2625
	1    0    0    -1  
$EndComp
Wire Wire Line
	10700 2625 10700 2450
$Comp
L Device:CP1 C?
U 1 1 6112E96D
P 11400 2300
F 0 "C?" H 11515 2346 50  0000 L CNN
F 1 "4700uF/63V" H 11515 2255 50  0000 L CNN
F 2 "" H 11400 2300 50  0001 C CNN
F 3 "~" H 11400 2300 50  0001 C CNN
	1    11400 2300
	1    0    0    -1  
$EndComp
Wire Wire Line
	11400 2150 11400 2000
Wire Wire Line
	10700 2000 11400 2000
$Comp
L power:GND #PWR?
U 1 1 6112FB38
P 11400 2625
F 0 "#PWR?" H 11400 2375 50  0001 C CNN
F 1 "GND" H 11405 2452 50  0000 C CNN
F 2 "" H 11400 2625 50  0001 C CNN
F 3 "" H 11400 2625 50  0001 C CNN
	1    11400 2625
	1    0    0    -1  
$EndComp
Wire Wire Line
	11400 2625 11400 2450
$Comp
L Device:C C?
U 1 1 61131174
P 12125 2300
F 0 "C?" H 12240 2346 50  0000 L CNN
F 1 "100nF/50V" H 12240 2255 50  0000 L CNN
F 2 "" H 12163 2150 50  0001 C CNN
F 3 "~" H 12125 2300 50  0001 C CNN
	1    12125 2300
	1    0    0    -1  
$EndComp
Wire Wire Line
	11400 2000 12125 2000
Wire Wire Line
	12125 2000 12125 2150
Connection ~ 11400 2000
$Comp
L power:GND #PWR?
U 1 1 61132036
P 12125 2625
F 0 "#PWR?" H 12125 2375 50  0001 C CNN
F 1 "GND" H 12130 2452 50  0000 C CNN
F 2 "" H 12125 2625 50  0001 C CNN
F 3 "" H 12125 2625 50  0001 C CNN
	1    12125 2625
	1    0    0    -1  
$EndComp
Wire Wire Line
	12125 2625 12125 2450
Wire Wire Line
	12125 2000 12950 2000
Wire Wire Line
	12950 2000 12950 2075
Connection ~ 12125 2000
$Comp
L Device:R R?
U 1 1 61133FBB
P 12950 2225
F 0 "R?" H 12880 2179 50  0000 R CNN
F 1 "9k1/0.125W" H 12880 2270 50  0000 R CNN
F 2 "" V 12880 2225 50  0001 C CNN
F 3 "~" H 12950 2225 50  0001 C CNN
	1    12950 2225
	-1   0    0    1   
$EndComp
$Comp
L Device:R R?
U 1 1 611345F1
P 12950 2700
F 0 "R?" H 12880 2654 50  0000 R CNN
F 1 "1k/0.125W" H 12880 2745 50  0000 R CNN
F 2 "" V 12880 2700 50  0001 C CNN
F 3 "~" H 12950 2700 50  0001 C CNN
	1    12950 2700
	-1   0    0    1   
$EndComp
Wire Wire Line
	12950 2375 12950 2450
Connection ~ 12950 2000
Wire Wire Line
	12950 2000 13700 2000
Text GLabel 13700 2000 2    50   Output ~ 0
MAIN_POWER
Wire Wire Line
	12950 2850 12950 2975
$Comp
L power:GND #PWR?
U 1 1 611388C7
P 12950 2975
F 0 "#PWR?" H 12950 2725 50  0001 C CNN
F 1 "GND" H 12955 2802 50  0000 C CNN
F 2 "" H 12950 2975 50  0001 C CNN
F 3 "" H 12950 2975 50  0001 C CNN
	1    12950 2975
	1    0    0    -1  
$EndComp
$Comp
L Device:CP1 C?
U 1 1 61139644
P 13575 2725
F 0 "C?" H 13690 2771 50  0000 L CNN
F 1 "220uF/10V" H 13690 2680 50  0000 L CNN
F 2 "" H 13575 2725 50  0001 C CNN
F 3 "~" H 13575 2725 50  0001 C CNN
	1    13575 2725
	1    0    0    -1  
$EndComp
Wire Wire Line
	12950 2450 13575 2450
Wire Wire Line
	13575 2450 13575 2575
Connection ~ 12950 2450
Wire Wire Line
	12950 2450 12950 2550
$Comp
L power:GND #PWR?
U 1 1 6113AA35
P 13575 2975
F 0 "#PWR?" H 13575 2725 50  0001 C CNN
F 1 "GND" H 13580 2802 50  0000 C CNN
F 2 "" H 13575 2975 50  0001 C CNN
F 3 "" H 13575 2975 50  0001 C CNN
	1    13575 2975
	1    0    0    -1  
$EndComp
Wire Wire Line
	13575 2975 13575 2875
Wire Wire Line
	13575 2450 13700 2450
Connection ~ 13575 2450
Text GLabel 13700 2450 2    50   Output ~ 0
ADC_MAIN_POWER_V
Wire Wire Line
	6475 1500 6475 4850
Wire Wire Line
	6475 4850 6725 4850
$Comp
L Device:D D?
U 1 1 6113DD1B
P 6875 4850
F 0 "D?" H 6875 4633 50  0000 C CNN
F 1 "1N4007" H 6875 4724 50  0000 C CNN
F 2 "" H 6875 4850 50  0001 C CNN
F 3 "~" H 6875 4850 50  0001 C CNN
	1    6875 4850
	-1   0    0    1   
$EndComp
Wire Wire Line
	7025 4850 7100 4850
$Comp
L Device:CP1 C?
U 1 1 6113F2F0
P 7100 5125
F 0 "C?" H 7215 5171 50  0000 L CNN
F 1 "220uF/50V" H 7215 5080 50  0000 L CNN
F 2 "" H 7100 5125 50  0001 C CNN
F 3 "~" H 7100 5125 50  0001 C CNN
	1    7100 5125
	1    0    0    -1  
$EndComp
Wire Wire Line
	7100 4975 7100 4850
Connection ~ 7100 4850
Wire Wire Line
	7100 4850 7300 4850
$Comp
L power:GND #PWR?
U 1 1 61140C46
P 7100 5400
F 0 "#PWR?" H 7100 5150 50  0001 C CNN
F 1 "GND" H 7105 5227 50  0000 C CNN
F 2 "" H 7100 5400 50  0001 C CNN
F 3 "" H 7100 5400 50  0001 C CNN
	1    7100 5400
	1    0    0    -1  
$EndComp
Wire Wire Line
	7100 5400 7100 5275
Text GLabel 7300 4850 2    50   Output ~ 0
POWER_38V
$Comp
L Device:R R?
U 1 1 61142524
P 10900 4000
F 0 "R?" V 11107 4000 50  0000 C CNN
F 1 "1k/0.125W" V 11016 4000 50  0000 C CNN
F 2 "" V 10830 4000 50  0001 C CNN
F 3 "~" H 10900 4000 50  0001 C CNN
	1    10900 4000
	0    -1   -1   0   
$EndComp
Wire Wire Line
	10750 4000 10500 4000
Text GLabel 10500 4000 0    50   Input ~ 0
POWER_38V
$Comp
L Device:C C?
U 1 1 61144CF4
P 11250 4725
F 0 "C?" H 11365 4771 50  0000 L CNN
F 1 "100nF/50V" H 11365 4680 50  0000 L CNN
F 2 "" H 11288 4575 50  0001 C CNN
F 3 "~" H 11250 4725 50  0001 C CNN
	1    11250 4725
	1    0    0    -1  
$EndComp
Wire Wire Line
	11250 4575 11250 4000
Wire Wire Line
	11250 4000 11050 4000
Wire Wire Line
	11250 4000 11825 4000
Connection ~ 11250 4000
$Comp
L Regulator_Linear:LM317L_SOT-89 U?
U 1 1 61147FE1
P 12125 4000
F 0 "U?" H 12125 4242 50  0000 C CNN
F 1 "LM317L_SOT-89" H 12125 4151 50  0000 C CNN
F 2 "Package_TO_SOT_SMD:SOT-89-3" H 12125 4250 50  0001 C CIN
F 3 "http://www.ti.com/lit/ds/symlink/lm317l.pdf" H 12125 4000 50  0001 C CNN
	1    12125 4000
	1    0    0    -1  
$EndComp
$Comp
L Device:R R?
U 1 1 6114CFF9
P 12675 4325
F 0 "R?" H 12745 4371 50  0000 L CNN
F 1 "220/0.125W" H 12745 4280 50  0000 L CNN
F 2 "" V 12605 4325 50  0001 C CNN
F 3 "~" H 12675 4325 50  0001 C CNN
	1    12675 4325
	1    0    0    -1  
$EndComp
Wire Wire Line
	12675 4175 12675 4000
Wire Wire Line
	12425 4000 12675 4000
Connection ~ 12675 4000
Wire Wire Line
	12675 4475 12675 4575
Wire Wire Line
	12525 4725 12125 4725
Wire Wire Line
	12125 4725 12125 4300
$Comp
L Device:R R?
U 1 1 6115E973
P 12675 5125
F 0 "R?" H 12745 5171 50  0000 L CNN
F 1 "5k6/0.125W" H 12745 5080 50  0000 L CNN
F 2 "" V 12605 5125 50  0001 C CNN
F 3 "~" H 12675 5125 50  0001 C CNN
	1    12675 5125
	1    0    0    -1  
$EndComp
Wire Wire Line
	12675 4975 12675 4875
Wire Wire Line
	12675 5275 12675 5350
$Comp
L power:GND #PWR?
U 1 1 61161C26
P 12675 5350
F 0 "#PWR?" H 12675 5100 50  0001 C CNN
F 1 "GND" H 12680 5177 50  0000 C CNN
F 2 "" H 12675 5350 50  0001 C CNN
F 3 "" H 12675 5350 50  0001 C CNN
	1    12675 5350
	1    0    0    -1  
$EndComp
$Comp
L power:GND #PWR?
U 1 1 611620A1
P 11250 5350
F 0 "#PWR?" H 11250 5100 50  0001 C CNN
F 1 "GND" H 11255 5177 50  0000 C CNN
F 2 "" H 11250 5350 50  0001 C CNN
F 3 "" H 11250 5350 50  0001 C CNN
	1    11250 5350
	1    0    0    -1  
$EndComp
Wire Wire Line
	11250 4875 11250 5350
$Comp
L Device:R_POT_TRIM RV?
U 1 1 611677C4
P 12675 4725
F 0 "RV?" H 12605 4679 50  0000 R CNN
F 1 "500" H 12605 4770 50  0000 R CNN
F 2 "" H 12675 4725 50  0001 C CNN
F 3 "~" H 12675 4725 50  0001 C CNN
	1    12675 4725
	-1   0    0    1   
$EndComp
$Comp
L Device:C C?
U 1 1 6116EAA0
P 13400 4725
F 0 "C?" H 13515 4771 50  0000 L CNN
F 1 "1uF/50V" H 13515 4680 50  0000 L CNN
F 2 "" H 13438 4575 50  0001 C CNN
F 3 "~" H 13400 4725 50  0001 C CNN
	1    13400 4725
	1    0    0    -1  
$EndComp
Wire Wire Line
	13400 4000 13400 4575
Wire Wire Line
	12675 4000 13400 4000
Wire Wire Line
	13400 4000 13750 4000
Connection ~ 13400 4000
$Comp
L power:GND #PWR?
U 1 1 61172599
P 13400 5350
F 0 "#PWR?" H 13400 5100 50  0001 C CNN
F 1 "GND" H 13405 5177 50  0000 C CNN
F 2 "" H 13400 5350 50  0001 C CNN
F 3 "" H 13400 5350 50  0001 C CNN
	1    13400 5350
	1    0    0    -1  
$EndComp
Wire Wire Line
	13400 5350 13400 4875
Text GLabel 13750 4000 2    50   Output ~ 0
+20V
Wire Notes Line
	14275 3475 14275 5675
Wire Notes Line
	14275 5675 9875 5675
Wire Notes Line
	9875 5675 9875 3475
Wire Notes Line
	9875 3475 14275 3475
Text Notes 10025 3650 0    50   ~ 0
+20V source
Wire Wire Line
	5900 1500 6475 1500
Wire Wire Line
	6300 2250 6300 5950
Wire Wire Line
	6300 5950 6625 5950
Connection ~ 6300 2250
Wire Wire Line
	6300 2250 7475 2250
$Comp
L Device:D D?
U 1 1 6118DC0C
P 6775 5950
F 0 "D?" H 6775 5733 50  0000 C CNN
F 1 "1N4007" H 6775 5824 50  0000 C CNN
F 2 "" H 6775 5950 50  0001 C CNN
F 3 "~" H 6775 5950 50  0001 C CNN
	1    6775 5950
	-1   0    0    1   
$EndComp
Wire Wire Line
	6925 5950 7075 5950
$Comp
L Device:CP1 C?
U 1 1 6118FE82
P 7075 6175
F 0 "C?" H 7190 6221 50  0000 L CNN
F 1 "1000uF/35V" H 7190 6130 50  0000 L CNN
F 2 "" H 7075 6175 50  0001 C CNN
F 3 "~" H 7075 6175 50  0001 C CNN
	1    7075 6175
	1    0    0    -1  
$EndComp
Wire Wire Line
	7075 6025 7075 5950
Wire Wire Line
	7075 6325 7075 6425
$Comp
L power:GND #PWR?
U 1 1 6119403E
P 7075 6425
F 0 "#PWR?" H 7075 6175 50  0001 C CNN
F 1 "GND" H 7080 6252 50  0000 C CNN
F 2 "" H 7075 6425 50  0001 C CNN
F 3 "" H 7075 6425 50  0001 C CNN
	1    7075 6425
	1    0    0    -1  
$EndComp
Text GLabel 7325 5950 2    50   Output ~ 0
POWER_19V
Wire Wire Line
	7325 5950 7075 5950
Connection ~ 7075 5950
Text GLabel 10525 6075 0    50   Input ~ 0
POWER_19V
$Comp
L Device:R R?
U 1 1 611989C5
P 10850 6075
F 0 "R?" V 11057 6075 50  0000 C CNN
F 1 "4R7/1W" V 10966 6075 50  0000 C CNN
F 2 "" V 10780 6075 50  0001 C CNN
F 3 "~" H 10850 6075 50  0001 C CNN
	1    10850 6075
	0    -1   -1   0   
$EndComp
Wire Wire Line
	10700 6075 10525 6075
$Comp
L Device:C C?
U 1 1 6119ACF2
P 11175 6350
F 0 "C?" H 11290 6396 50  0000 L CNN
F 1 "470nF/50V" H 11290 6305 50  0000 L CNN
F 2 "" H 11213 6200 50  0001 C CNN
F 3 "~" H 11175 6350 50  0001 C CNN
	1    11175 6350
	1    0    0    -1  
$EndComp
Wire Wire Line
	11175 6200 11175 6075
Wire Wire Line
	11175 6075 11000 6075
$Comp
L power:GND #PWR?
U 1 1 6119D38C
P 11175 6725
F 0 "#PWR?" H 11175 6475 50  0001 C CNN
F 1 "GND" H 11180 6552 50  0000 C CNN
F 2 "" H 11175 6725 50  0001 C CNN
F 3 "" H 11175 6725 50  0001 C CNN
	1    11175 6725
	1    0    0    -1  
$EndComp
Wire Wire Line
	11175 6725 11175 6500
Wire Wire Line
	11175 6075 11750 6075
Connection ~ 11175 6075
$Comp
L Regulator_Linear:LM7812_TO220 U?
U 1 1 611A2201
P 12050 6075
F 0 "U?" H 12050 6317 50  0000 C CNN
F 1 "LM7812_TO220" H 12050 6226 50  0000 C CNN
F 2 "Package_TO_SOT_THT:TO-220-3_Vertical" H 12050 6300 50  0001 C CIN
F 3 "https://www.onsemi.cn/PowerSolutions/document/MC7800-D.PDF" H 12050 6025 50  0001 C CNN
	1    12050 6075
	1    0    0    -1  
$EndComp
$Comp
L power:GND #PWR?
U 1 1 611A57A0
P 12050 6725
F 0 "#PWR?" H 12050 6475 50  0001 C CNN
F 1 "GND" H 12055 6552 50  0000 C CNN
F 2 "" H 12050 6725 50  0001 C CNN
F 3 "" H 12050 6725 50  0001 C CNN
	1    12050 6725
	1    0    0    -1  
$EndComp
Wire Wire Line
	12050 6375 12050 6725
Wire Wire Line
	12350 6075 12450 6075
$Comp
L Device:C C?
U 1 1 611AA584
P 12450 6350
F 0 "C?" H 12565 6396 50  0000 L CNN
F 1 "470nF/50V" H 12565 6305 50  0000 L CNN
F 2 "" H 12488 6200 50  0001 C CNN
F 3 "~" H 12450 6350 50  0001 C CNN
	1    12450 6350
	1    0    0    -1  
$EndComp
Wire Wire Line
	12450 6175 12450 6075
Connection ~ 12450 6075
Wire Wire Line
	12450 6075 12550 6075
$Comp
L power:GND #PWR?
U 1 1 611AF487
P 12450 6725
F 0 "#PWR?" H 12450 6475 50  0001 C CNN
F 1 "GND" H 12455 6552 50  0000 C CNN
F 2 "" H 12450 6725 50  0001 C CNN
F 3 "" H 12450 6725 50  0001 C CNN
	1    12450 6725
	1    0    0    -1  
$EndComp
Wire Wire Line
	12450 6500 12450 6725
Wire Wire Line
	12550 6075 12550 6025
$Comp
L power:+12V #PWR?
U 1 1 611B4ECA
P 12550 6025
F 0 "#PWR?" H 12550 5875 50  0001 C CNN
F 1 "+12V" H 12565 6198 50  0000 C CNN
F 2 "" H 12550 6025 50  0001 C CNN
F 3 "" H 12550 6025 50  0001 C CNN
	1    12550 6025
	1    0    0    -1  
$EndComp
Wire Notes Line
	9875 5750 13050 5750
Wire Notes Line
	13050 5750 13050 7100
Wire Notes Line
	13050 7100 9875 7100
Wire Notes Line
	9875 7100 9875 5750
Text Notes 9950 7000 0    50   ~ 0
+12V source
$Comp
L Regulator_Linear:LM7805_TO220 U?
U 1 1 611B91D2
P 11500 7575
F 0 "U?" H 11500 7817 50  0000 C CNN
F 1 "LM7805_TO220" H 11500 7726 50  0000 C CNN
F 2 "Package_TO_SOT_THT:TO-220-3_Vertical" H 11500 7800 50  0001 C CIN
F 3 "https://www.onsemi.cn/PowerSolutions/document/MC7800-D.PDF" H 11500 7525 50  0001 C CNN
	1    11500 7575
	1    0    0    -1  
$EndComp
$Comp
L Device:C C?
U 1 1 611BD46C
P 10700 7850
F 0 "C?" H 10815 7896 50  0000 L CNN
F 1 "100nF/50V" H 10815 7805 50  0000 L CNN
F 2 "" H 10738 7700 50  0001 C CNN
F 3 "~" H 10700 7850 50  0001 C CNN
	1    10700 7850
	1    0    0    -1  
$EndComp
Wire Wire Line
	10700 7700 10700 7575
Wire Wire Line
	10700 7575 11200 7575
Wire Wire Line
	10700 7575 10450 7575
Connection ~ 10700 7575
$Comp
L power:+12V #PWR?
U 1 1 611C3584
P 10450 7525
F 0 "#PWR?" H 10450 7375 50  0001 C CNN
F 1 "+12V" H 10465 7698 50  0000 C CNN
F 2 "" H 10450 7525 50  0001 C CNN
F 3 "" H 10450 7525 50  0001 C CNN
	1    10450 7525
	1    0    0    -1  
$EndComp
Wire Wire Line
	10450 7525 10450 7575
Wire Wire Line
	10700 8000 10700 8200
Wire Wire Line
	11500 7875 11500 8200
$Comp
L power:GND #PWR?
U 1 1 611CBFF3
P 10700 8200
F 0 "#PWR?" H 10700 7950 50  0001 C CNN
F 1 "GND" H 10705 8027 50  0000 C CNN
F 2 "" H 10700 8200 50  0001 C CNN
F 3 "" H 10700 8200 50  0001 C CNN
	1    10700 8200
	1    0    0    -1  
$EndComp
$Comp
L power:GND #PWR?
U 1 1 611CC2CA
P 11500 8200
F 0 "#PWR?" H 11500 7950 50  0001 C CNN
F 1 "GND" H 11505 8027 50  0000 C CNN
F 2 "" H 11500 8200 50  0001 C CNN
F 3 "" H 11500 8200 50  0001 C CNN
	1    11500 8200
	1    0    0    -1  
$EndComp
$Comp
L power:GND #PWR?
U 1 1 611CC58B
P 11950 8200
F 0 "#PWR?" H 11950 7950 50  0001 C CNN
F 1 "GND" H 11955 8027 50  0000 C CNN
F 2 "" H 11950 8200 50  0001 C CNN
F 3 "" H 11950 8200 50  0001 C CNN
	1    11950 8200
	1    0    0    -1  
$EndComp
$Comp
L Device:C C?
U 1 1 611CCBA2
P 11950 7850
F 0 "C?" H 12065 7896 50  0000 L CNN
F 1 "100nF/50V" H 12065 7805 50  0000 L CNN
F 2 "" H 11988 7700 50  0001 C CNN
F 3 "~" H 11950 7850 50  0001 C CNN
	1    11950 7850
	1    0    0    -1  
$EndComp
Wire Wire Line
	11950 8000 11950 8200
Wire Wire Line
	11800 7575 11950 7575
Wire Wire Line
	11950 7575 11950 7700
Wire Wire Line
	11950 7575 12200 7575
Wire Wire Line
	12200 7575 12200 7525
Connection ~ 11950 7575
$Comp
L power:+5V #PWR?
U 1 1 611D97DE
P 12200 7525
F 0 "#PWR?" H 12200 7375 50  0001 C CNN
F 1 "+5V" H 12215 7698 50  0000 C CNN
F 2 "" H 12200 7525 50  0001 C CNN
F 3 "" H 12200 7525 50  0001 C CNN
	1    12200 7525
	1    0    0    -1  
$EndComp
Wire Notes Line
	9875 7200 13050 7200
Wire Notes Line
	13050 7200 13050 8475
Wire Notes Line
	13050 8475 9875 8475
Wire Notes Line
	9875 8475 9875 7200
Text Notes 9950 8400 0    50   ~ 0
+5V source
Connection ~ 6475 1500
Wire Wire Line
	6475 1500 7400 1500
$Comp
L Device:Fuse F?
U 1 1 612266B3
P 1900 1500
F 0 "F?" V 1703 1500 50  0000 C CNN
F 1 "5A" V 1794 1500 50  0000 C CNN
F 2 "" V 1830 1500 50  0001 C CNN
F 3 "~" H 1900 1500 50  0001 C CNN
	1    1900 1500
	0    1    1    0   
$EndComp
$Comp
L Switch:SW_DPST SW?
U 1 1 6122AC4C
P 2450 1600
F 0 "SW?" H 2450 1925 50  0000 C CNN
F 1 "MAIN SWITCH" H 2450 1834 50  0000 C CNN
F 2 "" H 2450 1600 50  0001 C CNN
F 3 "~" H 2450 1600 50  0001 C CNN
	1    2450 1600
	1    0    0    -1  
$EndComp
Wire Wire Line
	2050 1500 2250 1500
$Comp
L Connector:Screw_Terminal_01x02 J?
U 1 1 61255C0A
P 1100 1650
F 0 "J?" H 1018 1325 50  0000 C CNN
F 1 "230V" H 1018 1416 50  0000 C CNN
F 2 "" H 1100 1650 50  0001 C CNN
F 3 "~" H 1100 1650 50  0001 C CNN
	1    1100 1650
	-1   0    0    1   
$EndComp
Wire Wire Line
	1300 1550 1300 1500
Wire Wire Line
	1300 1650 1300 1700
$Comp
L Connector:Screw_Terminal_01x02 J?
U 1 1 6125F7A3
P 3175 1550
F 0 "J?" H 3255 1542 50  0000 L CNN
F 1 "PRIMARY WING" H 3255 1451 50  0000 L CNN
F 2 "" H 3175 1550 50  0001 C CNN
F 3 "~" H 3175 1550 50  0001 C CNN
	1    3175 1550
	1    0    0    -1  
$EndComp
Wire Wire Line
	2975 1550 2975 1500
Wire Wire Line
	2650 1500 2975 1500
Wire Wire Line
	2975 1700 2975 1650
Wire Wire Line
	2650 1700 2975 1700
Wire Notes Line
	850  975  3900 975 
Wire Notes Line
	3900 975  3900 2200
Wire Notes Line
	3900 2200 850  2200
Wire Notes Line
	850  2200 850  975 
Text Notes 925  1125 0    50   ~ 0
PRIMARY WING CIRCUIT
Wire Wire Line
	1300 1500 1750 1500
Wire Wire Line
	1300 1700 2250 1700
Text Label 1375 1700 0    50   ~ 0
N
Text Label 1375 1500 0    50   ~ 0
L
Connection ~ 6300 5950
$Comp
L Device:D_Schottky D?
U 1 1 61273CD0
P 6750 7675
F 0 "D?" V 6796 7595 50  0000 R CNN
F 1 "D_Schottky" V 6705 7595 50  0000 R CNN
F 2 "" H 6750 7675 50  0001 C CNN
F 3 "~" H 6750 7675 50  0001 C CNN
	1    6750 7675
	0    -1   -1   0   
$EndComp
$Comp
L power:GND #PWR?
U 1 1 612742FB
P 6750 7000
F 0 "#PWR?" H 6750 6750 50  0001 C CNN
F 1 "GND" H 6755 6827 50  0000 C CNN
F 2 "" H 6750 7000 50  0001 C CNN
F 3 "" H 6750 7000 50  0001 C CNN
	1    6750 7000
	-1   0    0    1   
$EndComp
$Comp
L Device:CP1 C?
U 1 1 61278C0B
P 6750 7275
F 0 "C?" H 6865 7321 50  0000 L CNN
F 1 "100uF/10V" H 6865 7230 50  0000 L CNN
F 2 "" H 6750 7275 50  0001 C CNN
F 3 "~" H 6750 7275 50  0001 C CNN
	1    6750 7275
	1    0    0    -1  
$EndComp
Wire Wire Line
	6750 7125 6750 7000
Wire Wire Line
	6750 7525 6750 7500
Wire Wire Line
	6750 7825 6750 8000
Wire Wire Line
	6750 8000 6300 8000
Wire Wire Line
	6300 5950 6300 8000
Wire Wire Line
	6750 7500 7525 7500
Connection ~ 6750 7500
Wire Wire Line
	6750 7500 6750 7425
Text GLabel 7525 7500 2    50   Output ~ 0
POWER_M9V
$EndSCHEMATC
