EESchema Schematic File Version 4
EELAYER 30 0
EELAYER END
$Descr A4 11693 8268
encoding utf-8
Sheet 2 3
Title "Output Stage"
Date ""
Rev ""
Comp "Jacek Łysiak"
Comment1 ""
Comment2 ""
Comment3 ""
Comment4 ""
$EndDescr
Text GLabel 10000 1500 2    50   Output ~ 0
OUTPUT_P
Text GLabel 10000 2000 2    50   Output ~ 0
OUTPUT_M
Wire Wire Line
	10000 2000 9900 2000
$Comp
L Device:R R?
U 1 1 6104C38E
P 9900 2350
F 0 "R?" H 9970 2396 50  0000 L CNN
F 1 "0R1/5W" H 9970 2305 50  0000 L CNN
F 2 "" V 9830 2350 50  0001 C CNN
F 3 "~" H 9900 2350 50  0001 C CNN
	1    9900 2350
	1    0    0    -1  
$EndComp
Wire Wire Line
	9900 2200 9900 2000
Wire Wire Line
	9900 2500 9900 2700
$Comp
L power:GND #PWR?
U 1 1 6104D0C6
P 9900 2700
F 0 "#PWR?" H 9900 2450 50  0001 C CNN
F 1 "GND" H 9905 2527 50  0000 C CNN
F 2 "" H 9900 2700 50  0001 C CNN
F 3 "" H 9900 2700 50  0001 C CNN
	1    9900 2700
	1    0    0    -1  
$EndComp
Text Notes 10500 1910 0    50   ~ 0
OUTPUT:\n0..30V\n0..5A
$Comp
L Device:D D?
U 1 1 6104D892
P 7850 1750
F 0 "D?" V 7804 1830 50  0000 L CNN
F 1 "1N4007" V 7895 1830 50  0000 L CNN
F 2 "" H 7850 1750 50  0001 C CNN
F 3 "~" H 7850 1750 50  0001 C CNN
	1    7850 1750
	0    1    1    0   
$EndComp
Wire Wire Line
	7850 1500 7850 1600
Wire Wire Line
	7850 1900 7850 2000
Connection ~ 7850 1500
Connection ~ 7850 2000
$Comp
L Device:R R?
U 1 1 6105517A
P 9400 2350
F 0 "R?" H 9470 2396 50  0000 L CNN
F 1 "1k/1W" H 9470 2305 50  0000 L CNN
F 2 "" V 9330 2350 50  0001 C CNN
F 3 "~" H 9400 2350 50  0001 C CNN
	1    9400 2350
	1    0    0    -1  
$EndComp
Wire Wire Line
	9400 2200 9400 1500
Wire Wire Line
	9400 1500 10000 1500
$Comp
L power:GND #PWR?
U 1 1 61056042
P 9400 2700
F 0 "#PWR?" H 9400 2450 50  0001 C CNN
F 1 "GND" H 9405 2527 50  0000 C CNN
F 2 "" H 9400 2700 50  0001 C CNN
F 3 "" H 9400 2700 50  0001 C CNN
	1    9400 2700
	1    0    0    -1  
$EndComp
Wire Wire Line
	9400 2700 9400 2500
$Comp
L Transistor_FET:IRF540N Q?
U 1 1 610586D0
P 8575 3075
F 0 "Q?" H 8779 3121 50  0000 L CNN
F 1 "IRF540N" H 8779 3030 50  0000 L CNN
F 2 "Package_TO_SOT_THT:TO-220-3_Vertical" H 8825 3000 50  0001 L CIN
F 3 "http://www.irf.com/product-info/datasheets/data/irf540n.pdf" H 8575 3075 50  0001 L CNN
	1    8575 3075
	1    0    0    -1  
$EndComp
Connection ~ 9400 1500
$Comp
L Device:R R?
U 1 1 6105C4F7
P 8675 3800
F 0 "R?" H 8745 3846 50  0000 L CNN
F 1 "22R" H 8745 3755 50  0000 L CNN
F 2 "" V 8605 3800 50  0001 C CNN
F 3 "~" H 8675 3800 50  0001 C CNN
	1    8675 3800
	1    0    0    -1  
$EndComp
$Comp
L power:GND #PWR?
U 1 1 6105CDD7
P 8675 4050
F 0 "#PWR?" H 8675 3800 50  0001 C CNN
F 1 "GND" H 8680 3877 50  0000 C CNN
F 2 "" H 8675 4050 50  0001 C CNN
F 3 "" H 8675 4050 50  0001 C CNN
	1    8675 4050
	1    0    0    -1  
$EndComp
Wire Wire Line
	8675 4050 8675 3950
Wire Wire Line
	7850 2000 9900 2000
Connection ~ 9900 2000
Wire Wire Line
	8675 3275 8675 3475
Connection ~ 8675 3475
Wire Wire Line
	8675 3475 8675 3650
Wire Wire Line
	7850 1500 8675 1500
Wire Wire Line
	8675 1500 8675 2875
Text Notes 9850 2025 3    50   ~ 0
Measurement resistor
Text Notes 9350 2025 3    50   ~ 0
Discharge resistor
$Comp
L Device:R R?
U 1 1 6105E1EB
P 8025 2850
F 0 "R?" H 7955 2804 50  0000 R CNN
F 1 "100R/0.25W" H 7955 2895 50  0000 R CNN
F 2 "" V 7955 2850 50  0001 C CNN
F 3 "~" H 8025 2850 50  0001 C CNN
	1    8025 2850
	-1   0    0    1   
$EndComp
$Comp
L power:+5V #PWR?
U 1 1 6106A5AF
P 8025 2550
F 0 "#PWR?" H 8025 2400 50  0001 C CNN
F 1 "+5V" H 8040 2723 50  0000 C CNN
F 2 "" H 8025 2550 50  0001 C CNN
F 3 "" H 8025 2550 50  0001 C CNN
	1    8025 2550
	1    0    0    -1  
$EndComp
Wire Wire Line
	8025 2550 8025 2700
Connection ~ 8025 3075
Wire Wire Line
	8025 3000 8025 3075
$Comp
L power:GND #PWR?
U 1 1 610633C5
P 8025 4050
F 0 "#PWR?" H 8025 3800 50  0001 C CNN
F 1 "GND" H 8030 3877 50  0000 C CNN
F 2 "" H 8025 4050 50  0001 C CNN
F 3 "" H 8025 4050 50  0001 C CNN
	1    8025 4050
	1    0    0    -1  
$EndComp
Wire Wire Line
	8025 3950 8025 4050
Connection ~ 8025 3475
Wire Wire Line
	8025 3650 8025 3475
Wire Wire Line
	8025 3475 8225 3475
Wire Wire Line
	8025 3075 8025 3475
$Comp
L Device:C C?
U 1 1 6105EF78
P 8375 3475
F 0 "C?" V 8123 3475 50  0000 C CNN
F 1 "100nF/50V" V 8214 3475 50  0000 C CNN
F 2 "" H 8413 3325 50  0001 C CNN
F 3 "~" H 8375 3475 50  0001 C CNN
	1    8375 3475
	0    1    1    0   
$EndComp
$Comp
L Device:C C?
U 1 1 6105E98A
P 8025 3800
F 0 "C?" H 8140 3846 50  0000 L CNN
F 1 "1uF/50V" H 8140 3755 50  0000 L CNN
F 2 "" H 8063 3650 50  0001 C CNN
F 3 "~" H 8025 3800 50  0001 C CNN
	1    8025 3800
	1    0    0    -1  
$EndComp
Wire Wire Line
	8025 3075 8375 3075
Wire Wire Line
	8525 3475 8675 3475
Text Notes 7650 3475 1    50   ~ 0
Initial load
Wire Notes Line
	9100 2250 9100 4500
Wire Notes Line
	7525 4500 7525 2250
Connection ~ 8675 1500
Wire Wire Line
	8675 1500 9400 1500
Wire Notes Line
	7525 2250 9100 2250
Wire Notes Line
	7525 4500 9100 4500
$Comp
L Device:C C?
U 1 1 610758E4
P 7250 1775
F 0 "C?" H 7135 1729 50  0000 R CNN
F 1 "100pF/50V" H 7135 1820 50  0000 R CNN
F 2 "" H 7288 1625 50  0001 C CNN
F 3 "~" H 7250 1775 50  0001 C CNN
	1    7250 1775
	-1   0    0    1   
$EndComp
$Comp
L Device:C C?
U 1 1 61076A88
P 6575 1775
F 0 "C?" H 6460 1729 50  0000 R CNN
F 1 "100nF/50V" H 6460 1820 50  0000 R CNN
F 2 "" H 6613 1625 50  0001 C CNN
F 3 "~" H 6575 1775 50  0001 C CNN
	1    6575 1775
	-1   0    0    1   
$EndComp
Wire Wire Line
	7250 1625 7250 1500
Wire Wire Line
	7250 1500 7850 1500
Wire Wire Line
	7250 1500 6575 1500
Wire Wire Line
	6575 1500 6575 1625
Connection ~ 7250 1500
Wire Wire Line
	6575 1925 6575 2000
Wire Wire Line
	6575 2000 7250 2000
Wire Wire Line
	7250 1925 7250 2000
Connection ~ 7250 2000
Wire Wire Line
	7250 2000 7850 2000
Wire Wire Line
	5900 1625 5900 1500
Wire Wire Line
	5900 1500 6575 1500
Connection ~ 6575 1500
Wire Wire Line
	5900 1925 5900 2000
Wire Wire Line
	5900 2000 6575 2000
Connection ~ 6575 2000
$Comp
L Device:CP1 C?
U 1 1 6107C721
P 5900 1775
F 0 "C?" H 6015 1821 50  0000 L CNN
F 1 "470uF/35V" H 6015 1730 50  0000 L CNN
F 2 "" H 5900 1775 50  0001 C CNN
F 3 "~" H 5900 1775 50  0001 C CNN
	1    5900 1775
	1    0    0    -1  
$EndComp
Connection ~ 5900 1500
$Comp
L Transistor_BJT:2N3055 Q?
U 1 1 6107E9AC
P 4800 1600
F 0 "Q?" V 5128 1600 50  0000 C CNN
F 1 "2N3055" V 5037 1600 50  0000 C CNN
F 2 "Package_TO_SOT_THT:TO-3" H 5000 1525 50  0001 L CIN
F 3 "http://www.onsemi.com/pub_link/Collateral/2N3055-D.PDF" H 4800 1600 50  0001 L CNN
	1    4800 1600
	0    -1   -1   0   
$EndComp
Wire Wire Line
	5000 1500 5125 1500
$Comp
L Transistor_BJT:BD139 Q?
U 1 1 6107FE53
P 4500 2100
F 0 "Q?" V 4829 2100 50  0000 C CNN
F 1 "BD139-16" V 4738 2100 50  0000 C CNN
F 2 "Package_TO_SOT_THT:TO-126-3_Vertical" H 4700 2025 50  0001 L CIN
F 3 "http://www.st.com/internet/com/TECHNICAL_RESOURCES/TECHNICAL_LITERATURE/DATASHEET/CD00001225.pdf" H 4500 2100 50  0001 L CNN
	1    4500 2100
	0    -1   -1   0   
$EndComp
Wire Wire Line
	4700 2000 4800 2000
Wire Wire Line
	4800 2000 4800 1800
$Comp
L Device:R R?
U 1 1 61082A64
P 5125 1750
F 0 "R?" H 5055 1704 50  0000 R CNN
F 1 "15k/0.25W" H 5055 1795 50  0000 R CNN
F 2 "" V 5055 1750 50  0001 C CNN
F 3 "~" H 5125 1750 50  0001 C CNN
	1    5125 1750
	-1   0    0    1   
$EndComp
Wire Wire Line
	5125 1900 5125 2000
Wire Wire Line
	5125 2000 4800 2000
Connection ~ 4800 2000
Wire Wire Line
	5125 1600 5125 1500
Connection ~ 5125 1500
Wire Wire Line
	5125 1500 5900 1500
Wire Wire Line
	4300 2000 4250 2000
Connection ~ 4250 1500
Wire Wire Line
	4250 1500 4600 1500
$Comp
L Device:D D?
U 1 1 61086A51
P 4625 875
F 0 "D?" H 4625 1092 50  0000 C CNN
F 1 "1N4007" H 4625 1001 50  0000 C CNN
F 2 "" H 4625 875 50  0001 C CNN
F 3 "~" H 4625 875 50  0001 C CNN
	1    4625 875 
	1    0    0    -1  
$EndComp
Wire Wire Line
	4250 2000 4250 1500
Wire Wire Line
	4250 875  4475 875 
Wire Wire Line
	4775 875  5125 875 
Wire Wire Line
	4250 875  4250 1500
Wire Wire Line
	5125 875  5125 1500
Wire Notes Line
	4100 1200 5025 1200
Wire Notes Line
	5025 1200 5025 2375
Wire Notes Line
	5025 2375 4100 2375
Wire Notes Line
	4100 2375 4100 1200
Text Notes 4700 2350 0    50   ~ 0
radiator
Text GLabel 3750 1500 0    50   Input ~ 0
MAIN_POWER
Wire Wire Line
	3750 1500 4250 1500
$Comp
L Transistor_BJT:BC556 Q?
U 1 1 6109E478
P 4400 4275
F 0 "Q?" H 4591 4229 50  0000 L CNN
F 1 "BC556C" H 4591 4320 50  0000 L CNN
F 2 "Package_TO_SOT_THT:TO-92_Inline" H 4600 4200 50  0001 L CIN
F 3 "https://www.onsemi.com/pub/Collateral/BC556BTA-D.pdf" H 4400 4275 50  0001 L CNN
	1    4400 4275
	1    0    0    1   
$EndComp
$Comp
L power:GND #PWR?
U 1 1 6109F21B
P 4500 4575
F 0 "#PWR?" H 4500 4325 50  0001 C CNN
F 1 "GND" H 4505 4402 50  0000 C CNN
F 2 "" H 4500 4575 50  0001 C CNN
F 3 "" H 4500 4575 50  0001 C CNN
	1    4500 4575
	-1   0    0    -1  
$EndComp
Wire Wire Line
	4500 4575 4500 4475
Wire Wire Line
	4200 4275 4000 4275
$Comp
L Device:R R?
U 1 1 610A2249
P 3850 4275
F 0 "R?" V 3643 4275 50  0000 C CNN
F 1 "6k8/0.25W" V 3734 4275 50  0000 C CNN
F 2 "" V 3780 4275 50  0001 C CNN
F 3 "~" H 3850 4275 50  0001 C CNN
	1    3850 4275
	0    -1   1    0   
$EndComp
Wire Wire Line
	3700 4275 3500 4275
Text GLabel 3500 4275 0    50   Input ~ 0
DRTON_CTRL_V
$Comp
L Device:D D?
U 1 1 610968DD
P 4500 2600
F 0 "D?" V 4454 2680 50  0000 L CNN
F 1 "1N4148" V 4545 2680 50  0000 L CNN
F 2 "" H 4500 2600 50  0001 C CNN
F 3 "~" H 4500 2600 50  0001 C CNN
	1    4500 2600
	0    1    1    0   
$EndComp
$Comp
L Device:D_Zener D?
U 1 1 610982E2
P 4500 3400
F 0 "D?" V 4454 3480 50  0000 L CNN
F 1 "15V" V 4545 3480 50  0000 L CNN
F 2 "" H 4500 3400 50  0001 C CNN
F 3 "~" H 4500 3400 50  0001 C CNN
	1    4500 3400
	0    1    1    0   
$EndComp
$Comp
L Device:C C?
U 1 1 6109899A
P 4875 3400
F 0 "C?" H 4990 3446 50  0000 L CNN
F 1 "100nF/50V" H 4990 3355 50  0000 L CNN
F 2 "" H 4913 3250 50  0001 C CNN
F 3 "~" H 4875 3400 50  0001 C CNN
	1    4875 3400
	1    0    0    -1  
$EndComp
Wire Wire Line
	4500 2750 4500 2975
Wire Wire Line
	4500 2975 4875 2975
Wire Wire Line
	4875 2975 4875 3250
Connection ~ 4500 2975
Wire Wire Line
	4500 2975 4500 3250
Wire Wire Line
	4875 3550 4875 3650
Wire Wire Line
	4875 3650 4500 3650
Wire Wire Line
	4500 3650 4500 3550
Connection ~ 4500 3650
$Comp
L Transistor_BJT:BC556 Q?
U 1 1 610A42E5
P 3900 3425
F 0 "Q?" H 4091 3379 50  0000 L CNN
F 1 "BC556C" H 4091 3470 50  0000 L CNN
F 2 "Package_TO_SOT_THT:TO-92_Inline" H 4100 3350 50  0001 L CIN
F 3 "https://www.onsemi.com/pub/Collateral/BC556BTA-D.pdf" H 3900 3425 50  0001 L CNN
	1    3900 3425
	1    0    0    1   
$EndComp
Wire Wire Line
	4500 2975 4000 2975
Wire Wire Line
	4000 2975 4000 3225
Wire Wire Line
	4000 3625 4000 3650
Wire Wire Line
	4000 3650 4500 3650
Wire Wire Line
	3600 3425 3700 3425
Wire Wire Line
	4500 3650 4500 4075
$Comp
L Transistor_FET:2N7000 Q?
U 1 1 610B8B20
P 3075 3700
F 0 "Q?" H 3279 3746 50  0000 L CNN
F 1 "2N7000" H 3279 3655 50  0000 L CNN
F 2 "Package_TO_SOT_THT:TO-92_Inline" H 3275 3625 50  0001 L CIN
F 3 "https://www.onsemi.com/pub/Collateral/NDS7002A-D.PDF" H 3075 3700 50  0001 L CNN
	1    3075 3700
	1    0    0    -1  
$EndComp
Wire Wire Line
	3300 3425 3175 3425
Wire Wire Line
	3175 3425 3175 3500
$Comp
L power:GND #PWR?
U 1 1 610C67BF
P 3175 3950
F 0 "#PWR?" H 3175 3700 50  0001 C CNN
F 1 "GND" H 3180 3777 50  0000 C CNN
F 2 "" H 3175 3950 50  0001 C CNN
F 3 "" H 3175 3950 50  0001 C CNN
	1    3175 3950
	-1   0    0    -1  
$EndComp
Wire Wire Line
	3175 3950 3175 3900
$Comp
L Device:R R?
U 1 1 610ADD21
P 3450 3425
F 0 "R?" V 3657 3425 50  0000 C CNN
F 1 "22k/0.25W" V 3566 3425 50  0000 C CNN
F 2 "" V 3380 3425 50  0001 C CNN
F 3 "~" H 3450 3425 50  0001 C CNN
	1    3450 3425
	0    -1   -1   0   
$EndComp
$Comp
L Device:R R?
U 1 1 610CA57A
P 2600 3700
F 0 "R?" V 2807 3700 50  0000 C CNN
F 1 "1k/0.125W" V 2716 3700 50  0000 C CNN
F 2 "" V 2530 3700 50  0001 C CNN
F 3 "~" H 2600 3700 50  0001 C CNN
	1    2600 3700
	0    -1   -1   0   
$EndComp
Wire Wire Line
	2750 3700 2875 3700
Wire Wire Line
	2450 3700 2300 3700
Text GLabel 2300 3700 0    50   Input ~ 0
DRTON_CTRL_OFF
Connection ~ 4000 2975
$Comp
L Transistor_BJT:BC546 Q?
U 1 1 610D1296
P 2250 3075
F 0 "Q?" V 2578 3075 50  0000 C CNN
F 1 "BC546" V 2487 3075 50  0000 C CNN
F 2 "Package_TO_SOT_THT:TO-92_Inline" H 2450 3000 50  0001 L CIN
F 3 "https://www.onsemi.com/pub/Collateral/BC550-D.pdf" H 2250 3075 50  0001 L CNN
	1    2250 3075
	0    -1   -1   0   
$EndComp
$Comp
L Transistor_BJT:BC546 Q?
U 1 1 610D23C0
P 1875 3225
F 0 "Q?" V 2110 3225 50  0000 C CNN
F 1 "BC546" V 2201 3225 50  0000 C CNN
F 2 "Package_TO_SOT_THT:TO-92_Inline" H 2075 3150 50  0001 L CIN
F 3 "https://www.onsemi.com/pub/Collateral/BC550-D.pdf" H 1875 3225 50  0001 L CNN
	1    1875 3225
	0    1    1    0   
$EndComp
Wire Wire Line
	2050 2975 1875 2975
Wire Wire Line
	1875 2975 1875 3025
Wire Wire Line
	2075 3325 2250 3325
Wire Wire Line
	2250 3325 2250 3275
$Comp
L Device:R R?
U 1 1 610D9E93
P 2600 3325
F 0 "R?" V 2807 3325 50  0000 C CNN
F 1 "220k/0.25W" V 2716 3325 50  0000 C CNN
F 2 "" V 2530 3325 50  0001 C CNN
F 3 "~" H 2600 3325 50  0001 C CNN
	1    2600 3325
	0    -1   -1   0   
$EndComp
$Comp
L Device:R R?
U 1 1 610DA32F
P 1600 2975
F 0 "R?" V 1807 2975 50  0000 C CNN
F 1 "150k/0.25W" V 1716 2975 50  0000 C CNN
F 2 "" V 1530 2975 50  0001 C CNN
F 3 "~" H 1600 2975 50  0001 C CNN
	1    1600 2975
	0    -1   -1   0   
$EndComp
Wire Wire Line
	1750 2975 1875 2975
Connection ~ 1875 2975
Wire Wire Line
	1450 2975 1350 2975
Wire Wire Line
	1350 2975 1350 3325
Wire Wire Line
	1350 3325 1675 3325
Wire Wire Line
	2250 3325 2450 3325
Connection ~ 2250 3325
Wire Wire Line
	2750 3325 2875 3325
Wire Wire Line
	2875 3325 2875 2975
Wire Wire Line
	2875 2975 2450 2975
Connection ~ 2875 2975
Wire Wire Line
	2875 2975 4000 2975
Wire Wire Line
	4500 2300 4500 2450
Wire Wire Line
	1350 2975 1150 2975
Connection ~ 1350 2975
Text GLabel 1150 2975 0    50   Input ~ 0
POWER_38V
$EndSCHEMATC
